{ "height":12,
 "layers":[
        {
         "data":[0, 0, 0, 0, 0, 0, 0, 0, 0, 0, 0, 0, 0, 0, 0, 0, 0, 0, 0, 0, 0, 0, 0, 0, 0, 0, 0, 0, 0, 0, 0, 0, 0, 0, 0, 0, 0, 0, 0, 0, 0, 0, 0, 0, 0, 0, 0, 0, 0, 0, 0, 0, 0, 0, 0, 0, 0, 0, 0, 0, 0, 0, 0, 0, 0, 0, 0, 0, 0, 0, 0, 0, 0, 0, 0, 0, 0, 0, 0, 0, 0, 0, 0, 0, 0, 0, 0, 0, 0, 0, 0, 0, 0, 0, 0, 0, 0, 0, 0, 0, 0, 0, 0, 0, 0, 0, 0, 0, 0, 0, 0, 0, 0, 0, 0, 0, 0, 0, 0, 0, 0, 0, 0, 0, 0, 0, 0, 0, 0, 0, 23, 23, 23, 23, 23, 23, 23, 23, 0, 0, 0, 0, 0, 0, 0, 0, 29, 29, 29, 29, 29, 29, 29, 29, 0, 0, 0, 0, 0, 0, 23, 23, 23, 23, 28, 29, 29, 29, 29, 30, 23, 23, 23, 43, 23, 23, 29, 29, 29, 29, 29, 29, 29, 29, 29, 29, 29, 29, 29, 44, 29, 29],
         "height":12,
         "name":"Platforms",
         "opacity":1,
         "properties":
            {
             "block":5
            },
         "propertytypes":
            {
             "block":"int"
            },
         "type":"tilelayer",
         "visible":true,
         "width":16,
         "x":0,
         "y":0
        }, 
        {
         "data":[0, 0, 0, 0, 0, 0, 0, 0, 0, 0, 0, 0, 0, 0, 0, 0, 0, 0, 0, 0, 0, 0, 0, 0, 0, 0, 0, 0, 0, 0, 0, 0, 0, 0, 0, 0, 0, 0, 0, 0, 0, 0, 0, 0, 0, 0, 0, 0, 0, 0, 0, 0, 0, 0, 0, 0, 0, 0, 0, 0, 0, 0, 0, 0, 0, 0, 0, 0, 0, 0, 0, 0, 0, 0, 0, 0, 0, 0, 0, 0, 0, 0, 0, 0, 0, 0, 0, 0, 0, 0, 0, 0, 0, 0, 0, 0, 0, 0, 0, 0, 0, 0, 0, 0, 0, 0, 0, 0, 0, 0, 0, 0, 0, 0, 0, 0, 37, 39, 42, 0, 40, 0, 0, 0, 0, 0, 0, 0, 0, 0, 0, 0, 0, 0, 0, 0, 0, 0, 0, 0, 0, 0, 0, 0, 41, 41, 0, 0, 0, 0, 0, 0, 0, 0, 0, 38, 0, 0, 42, 0, 0, 0, 0, 0, 0, 0, 0, 0, 0, 0, 0, 0, 0, 0, 0, 0, 0, 0, 0, 0, 0, 0, 0, 0, 0, 0, 0, 0, 0, 0, 0, 0],
         "height":12,
         "name":"Decorations",
         "opacity":1,
         "type":"tilelayer",
         "visible":true,
         "width":16,
         "x":0,
         "y":0
        }],
 "nextobjectid":1,
 "orientation":"orthogonal",
 "renderorder":"left-down",
 "tileheight":16,
 "tilesets":[
        {
         "columns":3,
         "firstgid":1,
         "image":"tiles\/C32 Platformer Tiles_0\/Ground\/Nukalands.png",
         "imageheight":112,
         "imagewidth":48,
         "margin":0,
         "name":"C32 Nukalands",
         "spacing":0,
         "tilecount":21,
         "tileheight":16,
         "tileproperties":
            {
             "0":
                {
                 "block":5
                },
             "1":
                {
                 "block":1
                },
             "2":
                {
                 "block":9
                },
             "3":
                {
                 "block":4
                },
             "5":
                {
                 "block":8
                }
            },
         "tilepropertytypes":
            {
             "0":
                {
                 "block":"int"
                },
             "1":
                {
                 "block":"int"
                },
             "2":
                {
                 "block":"int"
                },
             "3":
                {
                 "block":"int"
                },
             "5":
                {
                 "block":"int"
                }
            },
         "tilewidth":16
        }, 
        {
         "columns":3,
         "firstgid":22,
         "image":"tiles\/C32 Platformer Tiles_0\/Ground\/Overworld.png",
         "imageheight":112,
         "imagewidth":48,
         "margin":0,
         "name":"C32 Overworld",
         "spacing":0,
         "tilecount":21,
         "tileheight":16,
         "tileproperties":
            {
             "0":
                {
                 "block":"5"
                },
             "1":
                {
                 "block":"1"
                },
             "2":
                {
                 "block":"9"
                },
             "3":
                {
                 "block":"4"
                },
             "5":
                {
                 "block":"8"
                }
            },
         "tilepropertytypes":
            {
             "0":
                {
                 "block":"string"
                },
             "1":
                {
                 "block":"string"
                },
             "2":
                {
                 "block":"string"
                },
             "3":
                {
                 "block":"string"
                },
             "5":
                {
                 "block":"string"
                }
            },
         "tilewidth":16
        }, 
        {
         "columns":1,
         "firstgid":43,
         "image":"tiles\/C32 Platformer Tiles_0\/Commons\/Ladder.png",
         "imageheight":32,
         "imagewidth":16,
         "margin":0,
         "name":"Ladder",
         "spacing":0,
         "tilecount":2,
         "tileheight":16,
         "tileproperties":
            {
             "0":
                {
                 "block":1,
                 "type":"ladder"
                },
             "1":
                {
                 "block":1,
                 "type":"ladder"
                }
            },
         "tilepropertytypes":
            {
             "0":
                {
                 "block":"int",
                 "type":"string"
                },
             "1":
                {
                 "block":"int",
                 "type":"string"
                }
            },
         "tilewidth":16
        }],
 "tilewidth":16,
 "version":1,
 "width":16
}